^D:\CTTHANH\SOLUTION\DEMOBTT\DEMOBTT\FORM1.RESX|D:\CTTHANH\SOLUTION\DEMOBTT\DEMOBTT\HCM.RESX|D:\CTTHANH\SOLUTION\DEMOBTT\DEMOBTT\PROPERTIES\RESOURCES.RESX
D:\CTTHANH\SOLUTION\DEMOBTT\DEMOBTT\OBJ\X86\DEBUG\DEMOBTT.FRMMAIN.RESOURCES
D:\CTTHANH\SOLUTION\DEMOBTT\DEMOBTT\OBJ\X86\DEBUG\DEMOBTT.HCM.RESOURCES
D:\CTTHANH\SOLUTION\DEMOBTT\DEMOBTT\OBJ\X86\DEBUG\DEMOBTT.PROPERTIES.RESOURCES.RESOURCES
